﻿[
  {
    "name": "Superman",
    "publisher": "DC Comics",
    "playedBy":  "Henry Cavill, Christopher Reeve, Tom Welling, Dean Cain (Series)", 
    "numberOfIssues": 423
  },
  {
    "name": "Spider-Man",
    "publisher": "Marvel Comics",
    "playedBy": "Tobey Maguire, Tom Holland, Andrew Garfield",
    "numberOfIssues": 100
  },
  {
    "name": "Batman",
    "publisher": "DC Comics",
    "playedBy": "Ben Affleck, Christian Bale, Michael Keaton, George Clooney",
    "numberOfIssues": 263
  },
  {
    "name": "Aquaman",
    "publisher": "DC Comics",
    "playedBy": "Jason Momoa",
    "numberOfIssues": 85
  },
  {
    "name": "Thor",
    "publisher": "Marvel Comics",
    "playedBy": "Chris Hemsworth",
    "numberOfIssues": 123
  },
  {
    "name": "Captain America",
    "publisher": "Marval Comics",
    "playedBy": "Chris Evans",
    "numberOfIssues": 136
  },
  {
    "name": "Wonder Woman",
    "publisher": "DC Comics",
    "playedBy": "Gal Gabot, Cathy Lee Crosby",
    "numberOfIssues": 99
  },
  {
    "name": "Wolverine",
    "publisher": "Marval Comics",
    "playedBy": "Hugh Jackman, Troye Sivan",
    "numberOfIssues": 17
  },
  {
    "name": "Hulk",
    "publisher": "Marvel Comics",
    "playedBy": "Mark Ruffalo, Edward Norton, Lou Ferrigno, Eric Bana",
    "numberOfIssues": 22
  },
  {
    "name": "The Flash",
    "publisher": "DC Comics",
    "playedBy": "Sam J. Jones, Grant Gustin",
    "numberOfIssues": 620
  }
]